<svg width="271" height="26" viewBox="0 0 271 26" fill="none" xmlns="http://www.w3.org/2000/svg">
<path d="M9.255 0.71C10.1883 0.663332 10.9583 0.639999 11.565 0.639999C13.665 0.639999 15.59 0.779999 17.34 1.06C18.2267 1.15333 19.0783 1.29333 19.895 1.48V6.485C18.915 6.39166 18.18 6.31 17.69 6.24C17.2933 6.21667 16.6517 6.15833 15.765 6.065C14.8783 6.01833 14.295 5.995 14.015 5.995C12.5917 5.995 11.5417 6.03 10.865 6.1C10.2117 6.14667 9.675 6.28667 9.255 6.52V0.71ZM11.565 25.28C9.23167 25.28 7.365 25.105 5.965 24.755C4.58833 24.405 3.515 23.7867 2.745 22.9C1.975 22.0133 1.42667 20.7883 1.1 19.225C0.796667 17.6617 0.645 15.5733 0.645 12.96C0.645 10.7433 0.75 8.92333 0.96 7.5C1.17 6.07667 1.53167 4.91 2.045 4C2.58167 3.06667 3.305 2.355 4.215 1.865C5.125 1.375 6.315 1.03667 7.785 0.849998V12.96C7.785 14.6167 7.83167 15.8883 7.925 16.775C8.01833 17.6383 8.19333 18.3033 8.45 18.77C8.73 19.26 9.12667 19.5983 9.64 19.785C10.1767 19.9717 10.935 20.065 11.915 20.065V25.28H11.565ZM13.385 15.76H10.9V10.685H20V24.405C18.9033 24.6617 17.5383 24.86 15.905 25C15.1117 25.1167 14.2717 25.1867 13.385 25.21V15.76ZM24.3805 0.919999H31.3805V25H24.3805V0.919999ZM32.8505 0.919999H41.7405V6.275H32.8505V0.919999ZM32.8505 10.16H40.0955V15.515H32.8505V10.16ZM32.8505 19.645H41.7405V25H32.8505V19.645ZM45.9479 0.919999H52.9479V25H45.9479V0.919999ZM54.4179 0.919999H63.3079V6.275H54.4179V0.919999ZM54.4179 10.16H61.6629V15.515H54.4179V10.16ZM54.4179 19.645H63.3079V25H54.4179V19.645ZM67.5152 0.919999H74.5152V25H67.5152V0.919999ZM75.9852 16.565V9.04L81.5152 0.919999H89.1452L80.8502 12.26L89.2502 25H81.4102L75.9852 16.565ZM107.997 6.45C107.227 6.35667 105.874 6.22833 103.937 6.065C102.864 6.01833 102 5.995 101.347 5.995C100.507 5.995 99.7135 6.01833 98.9668 6.065V0.639999H99.8418C101.755 0.639999 103.739 0.768332 105.792 1.025C106.445 1.11833 107.18 1.24667 107.997 1.41V6.45ZM102.222 17.895C102.222 17.405 102.187 17.055 102.117 16.845C102.047 16.6117 101.93 16.46 101.767 16.39C101.604 16.2967 101.324 16.2267 100.927 16.18L96.6218 15.655C94.0785 15.375 92.3635 14.5467 91.4768 13.17C91.0802 12.5867 90.8118 11.875 90.6718 11.035C90.5318 10.195 90.4618 9.16833 90.4618 7.955C90.4618 5.365 91.1268 3.49833 92.4568 2.355C93.5302 1.42167 95.2102 0.873332 97.4968 0.71V7.745C97.4968 8.04833 97.5085 8.305 97.5318 8.515C97.5552 8.725 97.6018 8.88833 97.6718 9.005C97.7418 9.145 97.8585 9.25 98.0218 9.32C98.1852 9.36667 98.4302 9.40167 98.7568 9.425L103.587 10.02C104.59 10.16 105.407 10.335 106.037 10.545C106.667 10.755 107.204 11.0817 107.647 11.525C108.697 12.6217 109.222 14.57 109.222 17.37C109.222 20.3333 108.569 22.41 107.262 23.6C106.679 24.1367 105.967 24.5333 105.127 24.79C104.31 25.0233 103.342 25.175 102.222 25.245V17.895ZM100.367 25.28C98.0335 25.28 95.8635 25.175 93.8568 24.965C92.6668 24.8483 91.7685 24.7317 91.1618 24.615V19.505C92.5385 19.6217 94.1135 19.7383 95.8868 19.855C97.0068 19.9017 97.8002 19.925 98.2668 19.925C99.5268 19.925 100.355 19.89 100.752 19.82V25.28H100.367ZM127.389 0.919999H127.984L130.749 10.51L126.724 25H119.724L127.389 0.919999ZM135.264 20.73H129.419L130.889 15.34H133.689L129.559 0.919999H135.964L143.629 25H136.489L135.264 20.73ZM145.958 1.9V0.919999H152.958L166.468 23.985V25H159.503L145.958 1.9ZM159.818 9.705V0.919999H166.468V21.08L159.818 9.705ZM145.958 4.805L152.608 16.18V25H145.958V4.805ZM171.011 0.919999H178.011V25H171.011V0.919999ZM179.481 19.645H179.761C180.905 19.645 181.71 19.5983 182.176 19.505C182.666 19.3883 183.028 19.1317 183.261 18.735C183.518 18.315 183.658 17.65 183.681 16.74C183.728 15.5733 183.751 14.3133 183.751 12.96C183.751 11.63 183.728 10.3583 183.681 9.145C183.635 8.235 183.483 7.57 183.226 7.15C182.993 6.73 182.608 6.47333 182.071 6.38C181.535 6.31 180.765 6.275 179.761 6.275H179.481V0.919999H179.761C181.628 0.919999 183.18 1.00167 184.416 1.165C185.676 1.32833 186.715 1.585 187.531 1.935C188.325 2.285 188.955 2.76333 189.421 3.37C189.888 3.97667 190.226 4.735 190.436 5.645C190.623 6.46167 190.74 7.43 190.786 8.55C190.856 9.64667 190.891 11.1167 190.891 12.96C190.891 14.8267 190.856 16.3083 190.786 17.405C190.74 18.5017 190.623 19.4583 190.436 20.275C190.226 21.185 189.888 21.9433 189.421 22.55C188.955 23.1567 188.325 23.635 187.531 23.985C186.715 24.335 185.676 24.5917 184.416 24.755C183.18 24.9183 181.628 25 179.761 25H179.481V19.645ZM203.892 0.919999H210.892V25H203.892V0.919999ZM212.362 12.155H213.202C213.949 12.155 214.497 12.1317 214.847 12.085C215.221 12.015 215.512 11.875 215.722 11.665C215.932 11.4783 216.061 11.21 216.107 10.86C216.177 10.4867 216.212 9.93833 216.212 9.215C216.212 8.49167 216.177 7.955 216.107 7.605C216.061 7.23167 215.932 6.94 215.722 6.73C215.512 6.54333 215.221 6.42667 214.847 6.38C214.474 6.31 213.926 6.275 213.202 6.275H212.362V0.919999H215.267C216.994 0.919999 218.394 1.095 219.467 1.445C220.564 1.77167 221.392 2.285 221.952 2.985C222.489 3.63833 222.851 4.46667 223.037 5.47C223.224 6.45 223.317 7.69833 223.317 9.215C223.317 10.6617 223.224 11.8633 223.037 12.82C222.874 13.7767 222.536 14.5817 222.022 15.235C221.439 15.9817 220.599 16.5533 219.502 16.95C218.429 17.3233 217.017 17.51 215.267 17.51H212.362V12.155ZM226.451 0.919999H233.451V25H226.451V0.919999ZM236.321 16.81H234.921V11.455H236.111C236.834 11.455 237.382 11.4317 237.756 11.385C238.129 11.315 238.421 11.1983 238.631 11.035C238.817 10.8717 238.946 10.6267 239.016 10.3C239.086 9.97333 239.121 9.495 239.121 8.865C239.121 8.235 239.086 7.75667 239.016 7.43C238.946 7.08 238.817 6.82333 238.631 6.66C238.444 6.49667 238.164 6.39167 237.791 6.345C237.441 6.29833 236.881 6.275 236.111 6.275H234.921V0.919999H238.526C240.182 0.919999 241.524 1.08333 242.551 1.41C243.577 1.73667 244.371 2.23833 244.931 2.915C245.444 3.545 245.782 4.32667 245.946 5.26C246.132 6.19333 246.226 7.395 246.226 8.865C246.226 10.755 246.051 12.2133 245.701 13.24C245.211 14.5467 244.347 15.4683 243.111 16.005L246.751 25H239.401L236.321 16.81ZM263.405 12.96C263.405 10.93 263.393 9.6 263.37 8.97C263.323 8.01333 263.195 7.325 262.985 6.905C262.775 6.46167 262.436 6.19333 261.97 6.1C261.503 6.03 260.838 5.995 259.975 5.995C258.971 5.995 258.318 6.04167 258.015 6.135V0.674998C258.225 0.651665 258.54 0.639999 258.96 0.639999H259.975C262.588 0.639999 264.606 0.849999 266.03 1.27C267.476 1.66667 268.526 2.33167 269.18 3.265C269.786 4.12833 270.16 5.26 270.3 6.66C270.463 8.06 270.545 10.16 270.545 12.96C270.545 15.41 270.486 17.3 270.37 18.63C270.276 19.9367 270.02 21.0217 269.6 21.885C269.133 22.865 268.41 23.6117 267.43 24.125C266.473 24.6383 265.131 24.9767 263.405 25.14V12.96ZM259.975 25.28C256.568 25.28 254.118 24.9067 252.625 24.16C251.855 23.7867 251.248 23.285 250.805 22.655C250.361 22.025 250.035 21.2433 249.825 20.31C249.638 19.4933 249.521 18.56 249.475 17.51C249.428 16.4367 249.405 14.92 249.405 12.96C249.405 10.51 249.451 8.63167 249.545 7.325C249.661 6.01833 249.93 4.92167 250.35 4.035C250.816 3.07833 251.528 2.34333 252.485 1.83C253.441 1.31667 254.795 0.966666 256.545 0.779999V12.96C256.545 14.3367 256.568 15.655 256.615 16.915C256.661 17.8717 256.778 18.5717 256.965 19.015C257.175 19.4583 257.513 19.715 257.98 19.785C258.376 19.8783 259.041 19.925 259.975 19.925C260.931 19.925 261.585 19.89 261.935 19.82V25.245C261.725 25.2683 261.41 25.28 260.99 25.28H259.975Z" fill="white"/>
</svg>
